me/a8/tpsspoofer/Metrics.class
me/a8/tpsspoofer/Metrics$DrilldownPie.class
me/a8/tpsspoofer/Metrics$CustomChart.class
me/a8/tpsspoofer/TpsSpoofer.class
me/a8/tpsspoofer/Metrics$SimplePie.class
me/a8/tpsspoofer/TpsSpoof.class
me/a8/tpsspoofer/Metrics$MultiLineChart.class
me/a8/tpsspoofer/Metrics$AdvancedBarChart.class
me/a8/tpsspoofer/Metrics$SimpleBarChart.class
me/a8/tpsspoofer/Metrics$SingleLineChart.class
me/a8/tpsspoofer/Metrics$1.class
me/a8/tpsspoofer/Metrics$AdvancedPie.class
