/Users/nikita/Documents/java stuff/TpsSpoofer/src/main/java/me/a8/tpsspoofer/TpsSpoof.java
/Users/nikita/Documents/java stuff/TpsSpoofer/src/main/java/me/a8/tpsspoofer/Metrics.java
/Users/nikita/Documents/java stuff/TpsSpoofer/src/main/java/me/a8/tpsspoofer/TpsSpoofer.java
